tb_core_top.vcd
$date
	Mon May 04 22:12:33 2026
$end
$version
	Icarus Verilog
$end
$timescale
	1ps
$end
$scope module tb_core_top $end
$var reg 1 ! clk $end
$var reg 1 " rst_n $end
$scope module uut $end
$var wire 4 # alu_ctrl_dec [3:0] $end
$var wire 1 $ alu_src_dec $end
$var wire 1 % branch_dec $end
$var wire 1 ! clk $end
$var wire 1 & flush_if_id $end
$var wire 32 ' fwd_ex_data [31:0] $end
$var wire 32 ( fwd_mem_data [31:0] $end
$var wire 32 ) rs1_data_dec [31:0] $end
$var wire 32 * rs2_data_dec [31:0] $end
$var wire 1 " rst_n $end
$var wire 1 + wb_reg_write $end
$var wire 5 , wb_rd_addr [4:0] $end
$var wire 32 - wb_data [31:0] $end
$var wire 1 . stall_pc $end
$var wire 1 / stall_if_id $end
$var wire 32 0 rs2_store_data_ex [31:0] $end
$var wire 32 1 rs2_store_data_dec [31:0] $end
$var wire 32 2 rs2_data_ex [31:0] $end
$var wire 5 3 rs2_addr_ex [4:0] $end
$var wire 32 4 rs1_data_ex [31:0] $end
$var wire 5 5 rs1_addr_ex [4:0] $end
$var wire 1 6 reg_write_ex $end
$var wire 1 7 reg_write_dec $end
$var wire 5 8 rd_addr_ex [4:0] $end
$var wire 5 9 rd_addr_dec [4:0] $end
$var wire 32 : pc_plus4_if [31:0] $end
$var wire 32 ; pc_plus4_id [31:0] $end
$var wire 32 < pc_plus4_ex [31:0] $end
$var wire 32 = pc_plus4_dec [31:0] $end
$var wire 32 > pc_if [31:0] $end
$var wire 32 ? pc_id [31:0] $end
$var wire 32 @ pc_ex [31:0] $end
$var wire 1 A mem_write_ex $end
$var wire 1 B mem_write_dec $end
$var wire 1 C mem_to_reg_ex $end
$var wire 1 D mem_to_reg_dec $end
$var wire 1 E mem_read_ex $end
$var wire 1 F mem_read_dec $end
$var wire 32 G mem_read_data_mem [31:0] $end
$var wire 1 H jump_out $end
$var wire 32 I instr_if [31:0] $end
$var wire 32 J instr_id [31:0] $end
$var wire 5 K id_rs2_addr [4:0] $end
$var wire 5 L id_rs1_addr [4:0] $end
$var wire 2 M fwd_b_sel [1:0] $end
$var wire 2 N fwd_a_sel [1:0] $end
$var wire 1 O flush_id_ex $end
$var wire 32 P exec_result_ex [31:0] $end
$var wire 32 Q exec_result_dec [31:0] $end
$var wire 32 R branch_target_ex [31:0] $end
$var wire 1 S branch_taken_ex $end
$var wire 1 T branch_ex $end
$var wire 1 U alu_src_ex $end
$var wire 4 V alu_ctrl_ex [3:0] $end
$scope module u_data_mem $end
$var wire 1 ! clk $end
$var wire 32 W write_data [31:0] $end
$var wire 32 X word_addr [31:0] $end
$var wire 1 A mem_write $end
$var wire 1 E mem_read $end
$var wire 32 Y addr_in [31:0] $end
$var parameter 32 Z MEM_DEPTH $end
$var reg 32 [ read_data [31:0] $end
$upscope $end
$scope module u_decode_execute $end
$var wire 1 S branch_taken_out $end
$var wire 1 ! clk $end
$var wire 32 \ fwd_ex_data [31:0] $end
$var wire 32 ] fwd_mem_data [31:0] $end
$var wire 1 H jump_out $end
$var wire 1 F mem_read_out $end
$var wire 1 D mem_to_reg_out $end
$var wire 1 B mem_write_out $end
$var wire 1 7 reg_write_out $end
$var wire 32 ^ rs2_store_data_out [31:0] $end
$var wire 1 " rst_n $end
$var wire 1 _ zero_flag $end
$var wire 1 + wb_reg_write $end
$var wire 32 ` wb_rd_data [31:0] $end
$var wire 5 a wb_rd_addr [4:0] $end
$var wire 32 b rs2_data [31:0] $end
$var wire 5 c rs2 [4:0] $end
$var wire 32 d rs1_data [31:0] $end
$var wire 5 e rs1 [4:0] $end
$var wire 1 f reg_write $end
$var wire 5 g rd_addr_out [4:0] $end
$var wire 5 h rd [4:0] $end
$var wire 32 i pc_plus4_out [31:0] $end
$var wire 32 j pc_in [31:0] $end
$var wire 7 k opcode [6:0] $end
$var wire 32 l op_b [31:0] $end
$var wire 1 m mem_write $end
$var wire 1 n mem_to_reg $end
$var wire 1 o mem_read $end
$var wire 1 p jump $end
$var wire 32 q instr_in [31:0] $end
$var wire 32 r imm_ext [31:0] $end
$var wire 2 s fwd_b_sel [1:0] $end
$var wire 2 t fwd_a_sel [1:0] $end
$var wire 7 u funct7 [6:0] $end
$var wire 3 v funct3 [2:0] $end
$var wire 32 w fft_y1 [31:0] $end
$var wire 32 x fft_y0 [31:0] $end
$var wire 1 y fft_en $end
$var wire 32 z exec_result_out [31:0] $end
$var wire 32 { branch_target_out [31:0] $end
$var wire 1 | branch_ne $end
$var wire 1 } branch $end
$var wire 1 ~ alu_src $end
$var wire 32 !" alu_result [31:0] $end
$var wire 4 "" alu_ctrl [3:0] $end
$var reg 32 #" op_a [31:0] $end
$var reg 32 $" op_b_raw [31:0] $end
$scope module u_alu $end
$var wire 32 %" a [31:0] $end
$var wire 32 &" b [31:0] $end
$var wire 1 _ zero $end
$var wire 4 '" alu_op [3:0] $end
$var reg 32 (" result [31:0] $end
$upscope $end
$scope module u_control_unit $end
$var wire 3 )" funct3 [2:0] $end
$var wire 7 *" funct7 [6:0] $end
$var wire 7 +" opcode [6:0] $end
$var parameter 4 ," ALU_ADD $end
$var parameter 4 -" ALU_AND $end
$var parameter 4 ." ALU_OR $end
$var parameter 4 /" ALU_PASS_B $end
$var parameter 4 0" ALU_SUB $end
$var parameter 4 1" ALU_XOR $end
$var parameter 7 2" OPCODE_BRANCH $end
$var parameter 7 3" OPCODE_FFT $end
$var parameter 7 4" OPCODE_JAL $end
$var parameter 7 5" OPCODE_LOAD $end
$var parameter 7 6" OPCODE_RTYPE $end
$var parameter 7 7" OPCODE_STORE $end
$var reg 4 8" alu_ctrl [3:0] $end
$var reg 1 ~ alu_src $end
$var reg 1 } branch $end
$var reg 1 | branch_ne $end
$var reg 1 y fft_en $end
$var reg 1 p jump $end
$var reg 1 o mem_read $end
$var reg 1 n mem_to_reg $end
$var reg 1 m mem_write $end
$var reg 1 f reg_write $end
$var reg 1 9" valid_instr $end
$upscope $end
$scope module u_imm_gen $end
$var wire 7 :" opcode [6:0] $end
$var wire 32 ;" instr [31:0] $end
$var reg 32 <" imm_out [31:0] $end
$upscope $end
$scope module u_regfile $end
$var wire 1 ! clk $end
$var wire 5 =" rs1_addr [4:0] $end
$var wire 5 >" rs2_addr [4:0] $end
$var wire 1 " rst_n $end
$var wire 32 ?" rs2_rdata [31:0] $end
$var wire 32 @" rs1_rdata [31:0] $end
$var wire 1 + reg_write_en $end
$var wire 32 A" rd_wdata [31:0] $end
$var wire 5 B" rd_addr [4:0] $end
$var integer 32 C" i [31:0] $end
$upscope $end
$scope module uut $end
$var wire 32 D" a_in [31:0] $end
$var wire 32 E" b_in [31:0] $end
$var wire 17 F" sat_max [16:0] $end
$var wire 17 G" sat_min [16:0] $end
$var wire 32 H" w_in [31:0] $end
$var wire 32 I" y1_out [31:0] $end
$var wire 32 J" y0_out [31:0] $end
$var wire 16 K" w_real [15:0] $end
$var wire 16 L" w_imag [15:0] $end
$var wire 16 M" sum_real_sat [15:0] $end
$var wire 17 N" sum_real_ext [16:0] $end
$var wire 16 O" sum_imag_sat [15:0] $end
$var wire 17 P" sum_imag_ext [16:0] $end
$var wire 32 Q" mult_rr [31:0] $end
$var wire 32 R" mult_ri [31:0] $end
$var wire 32 S" mult_ir [31:0] $end
$var wire 32 T" mult_ii [31:0] $end
$var wire 16 U" diff_real_sat [15:0] $end
$var wire 17 V" diff_real_ext [16:0] $end
$var wire 16 W" diff_imag_sat [15:0] $end
$var wire 17 X" diff_imag_ext [16:0] $end
$var wire 32 Y" bw_real_full [31:0] $end
$var wire 17 Z" bw_real [16:0] $end
$var wire 32 [" bw_imag_full [31:0] $end
$var wire 17 \" bw_imag [16:0] $end
$var wire 16 ]" b_real [15:0] $end
$var wire 16 ^" b_imag [15:0] $end
$var wire 16 _" a_real [15:0] $end
$var wire 16 `" a_imag [15:0] $end
$upscope $end
$upscope $end
$scope module u_fetch_stage $end
$var wire 1 S branch_taken $end
$var wire 32 a" branch_target [31:0] $end
$var wire 1 ! clk $end
$var wire 32 b" pc_out [31:0] $end
$var wire 1 " rst_n $end
$var wire 1 . stall $end
$var wire 32 c" pc_plus4_out [31:0] $end
$var wire 32 d" pc_next [31:0] $end
$var wire 32 e" pc_current [31:0] $end
$var wire 32 f" instr_out [31:0] $end
$scope module u_instr_mem $end
$var wire 32 g" word_addr [31:0] $end
$var wire 32 h" pc_in [31:0] $end
$var reg 32 i" instr_out [31:0] $end
$upscope $end
$scope module u_pc_reg $end
$var wire 1 ! clk $end
$var wire 32 j" next_pc [31:0] $end
$var wire 1 " rst_n $end
$var wire 1 k" stall $end
$var reg 32 l" pc_out [31:0] $end
$upscope $end
$upscope $end
$scope module u_forward_unit $end
$var wire 1 + memwb_reg_write $end
$var wire 5 m" memwb_rd_addr [4:0] $end
$var wire 1 6 exmem_reg_write $end
$var wire 5 n" exmem_rd_addr [4:0] $end
$var wire 5 o" ex_rs2_addr [4:0] $end
$var wire 5 p" ex_rs1_addr [4:0] $end
$var reg 2 q" forward_a_sel [1:0] $end
$var reg 2 r" forward_b_sel [1:0] $end
$upscope $end
$scope module u_hazard_unit $end
$var wire 5 s" id_rs1_addr [4:0] $end
$var wire 5 t" id_rs2_addr [4:0] $end
$var wire 5 u" ex_rd_addr [4:0] $end
$var wire 1 E ex_mem_read $end
$var reg 1 O flush_id_ex $end
$var reg 1 / stall_if_id $end
$var reg 1 . stall_pc $end
$upscope $end
$scope module u_id_ex_reg $end
$var wire 4 v" alu_ctrl_in [3:0] $end
$var wire 1 $ alu_src_in $end
$var wire 1 % branch_in $end
$var wire 1 ! clk $end
$var wire 32 w" exec_result_in [31:0] $end
$var wire 1 O flush $end
$var wire 1 F mem_read_in $end
$var wire 1 D mem_to_reg_in $end
$var wire 1 B mem_write_in $end
$var wire 32 x" pc_plus4_in [31:0] $end
$var wire 5 y" rd_addr_in [4:0] $end
$var wire 1 7 reg_write_in $end
$var wire 5 z" rs1_addr_in [4:0] $end
$var wire 32 {" rs1_data_in [31:0] $end
$var wire 5 |" rs2_addr_in [4:0] $end
$var wire 32 }" rs2_data_in [31:0] $end
$var wire 32 ~" rs2_store_data_in [31:0] $end
$var wire 1 " rst_n $end
$var wire 1 / stall $end
$var wire 32 !# pc_in [31:0] $end
$var reg 4 "# alu_ctrl_out [3:0] $end
$var reg 1 U alu_src_out $end
$var reg 1 T branch_out $end
$var reg 32 ## exec_result_out [31:0] $end
$var reg 1 E mem_read_out $end
$var reg 1 C mem_to_reg_out $end
$var reg 1 A mem_write_out $end
$var reg 32 $# pc_out [31:0] $end
$var reg 32 %# pc_plus4_out [31:0] $end
$var reg 5 &# rd_addr_out [4:0] $end
$var reg 1 6 reg_write_out $end
$var reg 5 '# rs1_addr_out [4:0] $end
$var reg 32 (# rs1_data_out [31:0] $end
$var reg 5 )# rs2_addr_out [4:0] $end
$var reg 32 *# rs2_data_out [31:0] $end
$var reg 32 +# rs2_store_data_out [31:0] $end
$upscope $end
$scope module u_if_id_reg $end
$var wire 1 ! clk $end
$var wire 1 & flush $end
$var wire 32 ,# instr_in [31:0] $end
$var wire 32 -# pc_in [31:0] $end
$var wire 32 .# pc_plus4_in [31:0] $end
$var wire 1 " rst_n $end
$var wire 1 / stall $end
$var reg 32 /# instr_out [31:0] $end
$var reg 32 0# pc_out [31:0] $end
$var reg 32 1# pc_plus4_out [31:0] $end
$upscope $end
$scope module u_mem_wb $end
$var wire 32 2# alu_result_in [31:0] $end
$var wire 1 ! clk $end
$var wire 1 H jump_in $end
$var wire 32 3# mem_read_data_in [31:0] $end
$var wire 1 C mem_to_reg_in $end
$var wire 32 4# pc_plus4_in [31:0] $end
$var wire 5 5# rd_addr_in [4:0] $end
$var wire 1 6 reg_write_in $end
$var wire 1 " rst_n $end
$var wire 5 6# wb_rd_addr_out [4:0] $end
$var wire 1 + wb_reg_write_out $end
$var wire 32 7# wb_data_out [31:0] $end
$var wire 1 8# reg_write_w $end
$var wire 5 9# rd_addr_w [4:0] $end
$var wire 32 :# pc_plus4_w [31:0] $end
$var wire 1 ;# mem_to_reg_w $end
$var wire 32 <# mem_read_data_w [31:0] $end
$var wire 1 =# jump_w $end
$var wire 32 ># alu_result_w [31:0] $end
$scope module u_mem_wb_reg $end
$var wire 32 ?# alu_result_in [31:0] $end
$var wire 1 ! clk $end
$var wire 1 H jump_in $end
$var wire 32 @# mem_read_data_in [31:0] $end
$var wire 1 C mem_to_reg_in $end
$var wire 32 A# pc_plus4_in [31:0] $end
$var wire 5 B# rd_addr_in [4:0] $end
$var wire 1 6 reg_write_in $end
$var wire 1 " rst_n $end
$var reg 32 C# alu_result_out [31:0] $end
$var reg 1 =# jump_out $end
$var reg 32 D# mem_read_data_out [31:0] $end
$var reg 1 ;# mem_to_reg_out $end
$var reg 32 E# pc_plus4_out [31:0] $end
$var reg 5 F# rd_addr_out [4:0] $end
$var reg 1 8# reg_write_out $end
$upscope $end
$scope module u_wb_mux $end
$var wire 32 G# alu_data [31:0] $end
$var wire 1 =# jump $end
$var wire 32 H# mem_data [31:0] $end
$var wire 1 ;# mem_to_reg $end
$var wire 32 I# pc_plus4 [31:0] $end
$var reg 32 J# wb_data [31:0] $end
$upscope $end
$upscope $end
$upscope $end
$scope task verify_output $end
$var reg 32 K# exp_pc [31:0] $end
$var reg 128 L# name [127:0] $end
$upscope $end
$upscope $end
$enddefinitions $end
$comment Show the parameter values. $end
$dumpall
b100011 7"
b110011 6"
b11 5"
b1101111 4"
b111011 3"
b1100011 2"
b100 1"
b1 0"
b101 /"
b11 ."
b10 -"
b0 ,"
b100000000 Z
$end
#0
$dumpvars
bx L#
bx K#
b0 J#
b0 I#
b0 H#
b0 G#
b0 F#
b0 E#
b0 D#
b0 C#
b0 B#
bx A#
b0 @#
bx ?#
b0 >#
0=#
b0 <#
0;#
b0 :#
b0 9#
08#
b0 7#
b0 6#
b0 5#
bx 4#
b0 3#
bx 2#
b0 1#
b0 0#
b0 /#
b1000000000100 .#
b1000000000000 -#
b0 ,#
bx +#
b0 *#
b0 )#
b0 (#
b0 '#
b0 &#
bx %#
b0 $#
bx ##
b0 "#
b0 !#
b0 ~"
bz }"
b0 |"
bz {"
b0 z"
b0 y"
b100 x"
b0 w"
bz v"
b0 u"
b0 t"
b0 s"
b0 r"
b0 q"
b0 p"
b0 o"
b0 n"
b0 m"
b1000000000000 l"
zk"
b1000000000100 j"
b0 i"
b1000000000000 h"
b10000000000 g"
b0 f"
b1000000000000 e"
b1000000000100 d"
b1000000000100 c"
b1000000000000 b"
b0 a"
b0 `"
b0 _"
b0 ^"
b0 ]"
b0 \"
b0 ["
b0 Z"
b0 Y"
b0 X"
b0 W"
b0 V"
b0 U"
b0 T"
b0 S"
b0 R"
b0 Q"
b0 P"
b0 O"
b0 N"
b0 M"
b1010010101111110 L"
b101101010000010 K"
b0 J"
b0 I"
b1011010100000101010010101111110 H"
b11000000000000000 G"
b111111111111111 F"
b0 E"
b0 D"
b100000 C"
b0 B"
b0 A"
b0 @"
b0 ?"
b0 >"
b0 ="
b0 <"
b0 ;"
b0 :"
09"
b0 8"
b0 +"
b0 *"
b0 )"
b0 ("
b0 '"
b0 &"
b0 %"
b0 $"
b0 #"
b0 ""
b0 !"
0~
0}
0|
b0 {
b0 z
0y
b0 x
b0 w
b0 v
b0 u
b0 t
b0 s
b0 r
b0 q
0p
0o
0n
0m
b0 l
b0 k
b0 j
b100 i
b0 h
b0 g
0f
b0 e
b0 d
b0 c
b0 b
b0 a
b0 `
1_
b0 ^
b0 ]
bx \
b0 [
bx Y
b0xxxxxxxxxxxxxxxxxxxxxxxxxxxxxx X
bx W
b0 V
0U
0T
0S
b0 R
b0 Q
bx P
0O
b0 N
b0 M
b0 L
b0 K
b0 J
b0 I
0H
b0 G
0F
0E
0D
0C
0B
0A
b0 @
b0 ?
b1000000000000 >
b100 =
bx <
b0 ;
b1000000000100 :
b0 9
b0 8
07
06
b0 5
b0 4
b0 3
b0 2
b0 1
bx 0
0/
0.
b0 -
b0 ,
0+
bz *
bz )
b0 (
bx '
z&
z%
z$
bz #
0"
0!
$end
#5000
b100000 C"
1!
#10000
0!
#15000
b100000 C"
1!
#20000
0!
b101000001000011010111110100100101101110011000110111001001100101011011010110010101101110011101000101111100110001 L#
b1000000000100 K#
1"
#25000
b1000000001000 j"
bx (
bx ]
bx -
bx `
bx A"
bx 7#
bx J#
b10000000001 g"
b1000000001000 d"
bx :#
bx E#
bx I#
bx >#
bx C#
bx G#
bz V
bz "#
zT
zU
bz 2
bz *#
bz 4
bz (#
b1000000000100 ;
b1000000000100 1#
b1000000000000 R
b1000000000000 {
b1000000000000 a"
b1000000000100 =
b1000000000100 i
b1000000000100 x"
b1000000000000 ?
b1000000000000 j
b1000000000000 !#
b1000000000000 0#
b1000000001000 :
b1000000001000 c"
b1000000001000 .#
b1000000000100 >
b1000000000100 b"
b1000000000100 -#
b1000000000100 e"
b1000000000100 h"
b1000000000100 l"
1!
#26000
b101000001000011010111110100100101101110011000110111001001100101011011010110010101101110011101000101111100110010 L#
b1000000001000 K#
#30000
0!
#35000
b1000000001100 j"
b10000000010 g"
b1000000001100 d"
b1000000001100 :
b1000000001100 c"
b1000000001100 .#
b1000000001000 >
b1000000001000 b"
b1000000001000 -#
b1000000001000 e"
b1000000001000 h"
b1000000001000 l"
b1000000001000 ;
b1000000001000 1#
b1000000000100 R
b1000000000100 {
b1000000000100 a"
b1000000001000 =
b1000000001000 i
b1000000001000 x"
b1000000000100 ?
b1000000000100 j
b1000000000100 !#
b1000000000100 0#
b1000000000000 @
b1000000000000 $#
1!
#40000
0!
#45000
b1000000010000 j"
b10000000011 g"
b1000000010000 d"
b1000000000100 @
b1000000000100 $#
b1000000001100 ;
b1000000001100 1#
b1000000001000 R
b1000000001000 {
b1000000001000 a"
b1000000001100 =
b1000000001100 i
b1000000001100 x"
b1000000001000 ?
b1000000001000 j
b1000000001000 !#
b1000000001000 0#
b1000000010000 :
b1000000010000 c"
b1000000010000 .#
b1000000001100 >
b1000000001100 b"
b1000000001100 -#
b1000000001100 e"
b1000000001100 h"
b1000000001100 l"
1!
#50000
0!
#55000
b1000000010100 j"
b10000000100 g"
b1000000010100 d"
b1000000010100 :
b1000000010100 c"
b1000000010100 .#
b1000000010000 >
b1000000010000 b"
b1000000010000 -#
b1000000010000 e"
b1000000010000 h"
b1000000010000 l"
b1000000010000 ;
b1000000010000 1#
b1000000001100 R
b1000000001100 {
b1000000001100 a"
b1000000010000 =
b1000000010000 i
b1000000010000 x"
b1000000001100 ?
b1000000001100 j
b1000000001100 !#
b1000000001100 0#
b1000000001000 @
b1000000001000 $#
1!
#60000
0!
#65000
b1000000011000 j"
b10000000101 g"
b1000000011000 d"
b1000000001100 @
b1000000001100 $#
b1000000010100 ;
b1000000010100 1#
b1000000010000 R
b1000000010000 {
b1000000010000 a"
b1000000010100 =
b1000000010100 i
b1000000010100 x"
b1000000010000 ?
b1000000010000 j
b1000000010000 !#
b1000000010000 0#
b1000000011000 :
b1000000011000 c"
b1000000011000 .#
b1000000010100 >
b1000000010100 b"
b1000000010100 -#
b1000000010100 e"
b1000000010100 h"
b1000000010100 l"
1!
#70000
0!
#75000
b1000000011100 j"
b10000000110 g"
b1000000011100 d"
b1000000011100 :
b1000000011100 c"
b1000000011100 .#
b1000000011000 >
b1000000011000 b"
b1000000011000 -#
b1000000011000 e"
b1000000011000 h"
b1000000011000 l"
b1000000011000 ;
b1000000011000 1#
b1000000010100 R
b1000000010100 {
b1000000010100 a"
b1000000011000 =
b1000000011000 i
b1000000011000 x"
b1000000010100 ?
b1000000010100 j
b1000000010100 !#
b1000000010100 0#
b1000000010000 @
b1000000010000 $#
1!
#80000
0!
#85000
b1000000100000 j"
b10000000111 g"
b1000000100000 d"
b1000000010100 @
b1000000010100 $#
b1000000011100 ;
b1000000011100 1#
b1000000011000 R
b1000000011000 {
b1000000011000 a"
b1000000011100 =
b1000000011100 i
b1000000011100 x"
b1000000011000 ?
b1000000011000 j
b1000000011000 !#
b1000000011000 0#
b1000000100000 :
b1000000100000 c"
b1000000100000 .#
b1000000011100 >
b1000000011100 b"
b1000000011100 -#
b1000000011100 e"
b1000000011100 h"
b1000000011100 l"
1!
#90000
0!
#95000
b1000000100100 j"
b10000001000 g"
b1000000100100 d"
b1000000100100 :
b1000000100100 c"
b1000000100100 .#
b1000000100000 >
b1000000100000 b"
b1000000100000 -#
b1000000100000 e"
b1000000100000 h"
b1000000100000 l"
b1000000100000 ;
b1000000100000 1#
b1000000011100 R
b1000000011100 {
b1000000011100 a"
b1000000100000 =
b1000000100000 i
b1000000100000 x"
b1000000011100 ?
b1000000011100 j
b1000000011100 !#
b1000000011100 0#
b1000000011000 @
b1000000011000 $#
1!
#100000
0!
#105000
b1000000101000 j"
b10000001001 g"
b1000000101000 d"
b1000000011100 @
b1000000011100 $#
b1000000100100 ;
b1000000100100 1#
b1000000100000 R
b1000000100000 {
b1000000100000 a"
b1000000100100 =
b1000000100100 i
b1000000100100 x"
b1000000100000 ?
b1000000100000 j
b1000000100000 !#
b1000000100000 0#
b1000000101000 :
b1000000101000 c"
b1000000101000 .#
b1000000100100 >
b1000000100100 b"
b1000000100100 -#
b1000000100100 e"
b1000000100100 h"
b1000000100100 l"
1!
#110000
0!
#115000
b1000000101100 j"
b10000001010 g"
b1000000101100 d"
b1000000101100 :
b1000000101100 c"
b1000000101100 .#
b1000000101000 >
b1000000101000 b"
b1000000101000 -#
b1000000101000 e"
b1000000101000 h"
b1000000101000 l"
b1000000101000 ;
b1000000101000 1#
b1000000100100 R
b1000000100100 {
b1000000100100 a"
b1000000101000 =
b1000000101000 i
b1000000101000 x"
b1000000100100 ?
b1000000100100 j
b1000000100100 !#
b1000000100100 0#
b1000000100000 @
b1000000100000 $#
1!
#120000
0!
#125000
b1000000110000 j"
b10000001011 g"
b1000000110000 d"
b1000000100100 @
b1000000100100 $#
b1000000101100 ;
b1000000101100 1#
b1000000101000 R
b1000000101000 {
b1000000101000 a"
b1000000101100 =
b1000000101100 i
b1000000101100 x"
b1000000101000 ?
b1000000101000 j
b1000000101000 !#
b1000000101000 0#
b1000000110000 :
b1000000110000 c"
b1000000110000 .#
b1000000101100 >
b1000000101100 b"
b1000000101100 -#
b1000000101100 e"
b1000000101100 h"
b1000000101100 l"
1!
#130000
0!
#135000
b1000000110100 j"
b10000001100 g"
b1000000110100 d"
b1000000110100 :
b1000000110100 c"
b1000000110100 .#
b1000000110000 >
b1000000110000 b"
b1000000110000 -#
b1000000110000 e"
b1000000110000 h"
b1000000110000 l"
b1000000110000 ;
b1000000110000 1#
b1000000101100 R
b1000000101100 {
b1000000101100 a"
b1000000110000 =
b1000000110000 i
b1000000110000 x"
b1000000101100 ?
b1000000101100 j
b1000000101100 !#
b1000000101100 0#
b1000000101000 @
b1000000101000 $#
1!
